{
    "id": 1,
    "name": "Body Talk",
    "singer": "M2U",
    "bpm": 90,
    "beatUnit": 4,
    "playOffset": 0.28,
    "featureOffset": 59.5,
    "upsideDown": false,
    "charts": [
        {
            "difficultyLevel": 6,
            "difficulty": "Easy",
            "beatUnit": 2,
            "notes": [
                {}
            ]
        },
        {
            "difficultyLevel": 6,
            "difficulty": "Hard",
            "beatUnit": 2,
            "notes": [
                {
                    "beatingStyle": "Click",
                    "rhythms": [
                        {
                            "positionX": -8
                        }
                    ],
                    "stepOffset": 16
                },
                {
                    "beatingStyle": "Click",
                    "rhythms": [
                        {
                            "positionX": 8
                        }
                    ],
                    "stepOffset": 8
                },
                {
                    "beatingStyle": "Click",
                    "rhythms": [
                        {
                            "positionX": 4
                        }
                    ],
                    "stepOffset": 8
                },
                {
                    "beatingStyle": "Click",
                    "rhythms": [
                        {
                            "positionX": -4
                        }
                    ],
                    "stepOffset": 8
                },
                {
                    "beatingStyle": "Click",
                    "rhythms": [
                        {
                            "positionX": 8
                        }
                    ],
                    "stepOffset": 8
                },
                {
                    "beatingStyle": "Click",
                    "rhythms": [
                        {
                            "positionX": -8
                        }
                    ],
                    "stepOffset": 8
                },
                {
                    "beatingStyle": "Click",
                    "rhythms": [
                        {
                            "positionX": -6
                        }
                    ],
                    "stepOffset": 8
                },
                {
                    "beatingStyle": "Click",
                    "rhythms": [
                        {
                            "positionX": 6
                        }
                    ],
                    "stepOffset": 8
                },
                {
                    "beatingStyle": "Drag",
                    "rhythms": [
                        {
                            "positionX": 4,
                            "tempo": 1
                        },
                        {
                            "positionX": 3,
                            "tempo": 1
                        },
                        {
                            "positionX": 2,
                            "tempo": 1
                        }
                    ],
                    "stepOffset": 4
                },
                {
                    "beatingStyle": "Hold",
                    "rhythms": [
                        {
                            "positionX": -2,
                            "tempo": 6
                        }
                    ],
                    "stepOffset": 4
                },
                {
                    "beatingStyle": "Click",
                    "rhythms": [
                        {
                            "positionX": 8
                        }
                    ],
                    "stepOffset": 6
                },
                {
                    "beatingStyle": "Drag",
                    "rhythms": [
                        {
                            "positionX": -4,
                            "tempo": 1
                        },
                        {
                            "positionX": -3,
                            "tempo": 1
                        },
                        {
                            "positionX": -2,
                            "tempo": 1
                        }
                    ],
                    "stepOffset": 6
                },
                {
                    "beatingStyle": "Hold",
                    "rhythms": [
                        {
                            "positionX": 2,
                            "tempo": 6
                        }
                    ],
                    "stepOffset": 4
                },
                {
                    "beatingStyle": "Click",
                    "rhythms": [
                        {
                            "positionX": -8
                        }
                    ],
                    "stepOffset": 6
                },
                {
                    "beatingStyle": "Click",
                    "rhythms": [
                        {
                            "positionX": 4
                        }
                    ],
                    "stepOffset": 6
                },
                {
                    "beatingStyle": "SpecialHold",
                    "rhythms": [
                        {
                            "positionX": -2,
                            "tempo": 32
                        }
                    ],
                    "stepOffset": 4
                },
                {
                    "beatingStyle": "Click",
                    "rhythms": [
                        {
                            "positionX": 8
                        }
                    ],
                    "stepOffset": 36
                },
                {
                    "beatingStyle": "Click",
                    "rhythms": [
                        {
                            "positionX": 4
                        }
                    ],
                    "stepOffset": 6
                },
                {
                    "beatingStyle": "Click",
                    "rhythms": [
                        {
                            "positionX": 0
                        }
                    ],
                    "stepOffset": 6
                },
                {
                    "beatingStyle": "Click",
                    "rhythms": [
                        {
                            "positionX": -4
                        }
                    ],
                    "stepOffset": 6
                },
                {
                    "beatingStyle": "Click",
                    "rhythms": [
                        {
                            "positionX": -8
                        }
                    ],
                    "stepOffset": 6
                },
                {
                    "beatingStyle": "Click",
                    "rhythms": [
                        {
                            "positionX": 8
                        }
                    ],
                    "stepOffset": 0
                },
                {
                    "beatingStyle": "Hold",
                    "rhythms": [
                        {
                            "positionX": 6,
                            "tempo": 8
                        }
                    ],
                    "stepOffset": 4
                },
                {
                    "beatingStyle": "Hold",
                    "rhythms": [
                        {
                            "positionX": -6,
                            "tempo": 8
                        }
                    ],
                    "stepOffset": 0
                },
                {
                    "beatingStyle": "Drag",
                    "rhythms": [
                        {
                            "positionX": -6,
                            "tempo": 2
                        },
                        {
                            "positionX": -7,
                            "tempo": 2
                        }
                    ],
                    "stepOffset": 12
                },
                {
                    "beatingStyle": "Drag",
                    "rhythms": [
                        {
                            "positionX": 0,
                            "tempo": 2
                        },
                        {
                            "positionX": 1,
                            "tempo": 2
                        }
                    ],
                    "stepOffset": 14
                },
                {
                    "beatingStyle": "Hold",
                    "rhythms": [
                        {
                            "positionX": 3,
                            "tempo": 8
                        }
                    ],
                    "stepOffset": 6
                },
                {
                    "beatingStyle": "Hold",
                    "rhythms": [
                        {
                            "positionX": -3,
                            "tempo": 8
                        }
                    ],
                    "stepOffset": 0
                },
                {
                    "beatingStyle": "Drag",
                    "rhythms": [
                        {
                            "positionX": 6,
                            "tempo": 2
                        },
                        {
                            "positionX": 7,
                            "tempo": 2
                        }
                    ],
                    "stepOffset": 12
                },
                {
                    "beatingStyle": "Drag",
                    "rhythms": [
                        {
                            "positionX": 0,
                            "tempo": 2
                        },
                        {
                            "positionX": -1,
                            "tempo": 2
                        }
                    ],
                    "stepOffset": 14
                },
                {
                    "beatingStyle": "Hold",
                    "rhythms": [
                        {
                            "positionX": -8,
                            "tempo": 12
                        }
                    ],
                    "stepOffset": 6
                },
                {
                    "beatingStyle": "Drag",
                    "rhythms": [
                        {
                            "positionX": 8,
                            "tempo": 2
                        },
                        {
                            "positionX": 6,
                            "tempo": 2
                        }
                    ],
                    "stepOffset": 12
                },
                {
                    "beatingStyle": "Hold",
                    "rhythms": [
                        {
                            "positionX": -5,
                            "tempo": 12
                        }
                    ],
                    "stepOffset": 4
                },
                {
                    "beatingStyle": "Click",
                    "rhythms": [
                        {
                            "positionX": -3
                        }
                    ],
                    "stepOffset": 16
                },
                {
                    "beatingStyle": "Click",
                    "rhythms": [
                        {
                            "positionX": 3
                        }
                    ],
                    "stepOffset": 0
                },
                {
                    "beatingStyle": "Click",
                    "rhythms": [
                        {
                            "positionX": -2
                        }
                    ],
                    "stepOffset": 4
                },
                {
                    "beatingStyle": "Hold",
                    "rhythms": [
                        {
                            "positionX": 2,
                            "tempo": 10
                        }
                    ],
                    "stepOffset": 2
                },
                {
                    "beatingStyle": "Click",
                    "rhythms": [
                        {
                            "positionX": -7
                        }
                    ],
                    "stepOffset": 26
                },
                {
                    "beatingStyle": "Click",
                    "rhythms": [
                        {
                            "positionX": 7
                        }
                    ],
                    "stepOffset": 0
                },
                {
                    "beatingStyle": "Click",
                    "rhythms": [
                        {
                            "positionX": 5
                        }
                    ],
                    "stepOffset": 6
                },
                {
                    "beatingStyle": "Click",
                    "rhythms": [
                        {
                            "positionX": -5
                        }
                    ],
                    "stepOffset": 2
                },
                {
                    "beatingStyle": "Click",
                    "rhythms": [
                        {
                            "positionX": 5
                        }
                    ],
                    "stepOffset": 2
                },
                {
                    "beatingStyle": "Click",
                    "rhythms": [
                        {
                            "positionX": -5
                        }
                    ],
                    "stepOffset": 2
                },
                {
                    "beatingStyle": "Click",
                    "rhythms": [
                        {
                            "positionX": 5
                        }
                    ],
                    "stepOffset": 2
                },
                {
                    "beatingStyle": "Click",
                    "rhythms": [
                        {
                            "positionX": -2
                        }
                    ],
                    "stepOffset": 2
                },
                {
                    "beatingStyle": "Click",
                    "rhythms": [
                        {
                            "positionX": 2
                        }
                    ],
                    "stepOffset": 4
                },
                {
                    "beatingStyle": "Click",
                    "rhythms": [
                        {
                            "positionX": -2
                        }
                    ],
                    "stepOffset": 2
                },
                {
                    "beatingStyle": "Click",
                    "rhythms": [
                        {
                            "positionX": -2
                        }
                    ],
                    "stepOffset": 4
                },
                {
                    "beatingStyle": "Click",
                    "rhythms": [
                        {
                            "positionX": 2
                        }
                    ],
                    "stepOffset": 2
                },
                {
                    "beatingStyle": "Click",
                    "rhythms": [
                        {
                            "positionX": -8
                        }
                    ],
                    "stepOffset": 4
                },
                {
                    "beatingStyle": "Click",
                    "rhythms": [
                        {
                            "positionX": -8
                        }
                    ],
                    "stepOffset": 4
                },
                {
                    "beatingStyle": "SpecialHold",
                    "rhythms": [
                        {
                            "positionX": 8,
                            "tempo": 20
                        }
                    ],
                    "stepOffset": 2
                },
                {
                    "beatingStyle": "Click",
                    "rhythms": [
                        {
                            "positionX": -8
                        }
                    ],
                    "stepOffset": 6
                },
                {
                    "beatingStyle": "Click",
                    "rhythms": [
                        {
                            "positionX": -2
                        }
                    ],
                    "stepOffset": 8
                },
                {
                    "beatingStyle": "Click",
                    "rhythms": [
                        {
                            "positionX": -2
                        }
                    ],
                    "stepOffset": 8
                },
                {
                    "beatingStyle": "Hold",
                    "rhythms": [
                        {
                            "positionX": -7,
                            "tempo": 12
                        }
                    ],
                    "stepOffset": 4
                },
                {
                    "beatingStyle": "Click",
                    "rhythms": [
                        {
                            "positionX": 5
                        }
                    ],
                    "stepOffset": 4
                },
                {
                    "beatingStyle": "Click",
                    "rhythms": [
                        {
                            "positionX": 5
                        }
                    ],
                    "stepOffset": 8
                },
                {
                    "beatingStyle": "Drag",
                    "rhythms": [
                        {
                            "positionX": 3,
                            "tempo": 6
                        },
                        {
                            "positionX": 1,
                            "tempo": 6
                        }
                    ],
                    "stepOffset": 4
                },
                {
                    "beatingStyle": "Click",
                    "rhythms": [
                        {
                            "positionX": -3
                        }
                    ],
                    "stepOffset": 4
                },
                {
                    "beatingStyle": "Click",
                    "rhythms": [
                        {
                            "positionX": -3
                        }
                    ],
                    "stepOffset": 8
                },
                {
                    "beatingStyle": "Click",
                    "rhythms": [
                        {
                            "positionX": 3
                        }
                    ],
                    "stepOffset": 0
                },
                {
                    "beatingStyle": "Click",
                    "rhythms": [
                        {
                            "positionX": -5
                        }
                    ],
                    "stepOffset": 4
                },
                {
                    "beatingStyle": "Hold",
                    "rhythms": [
                        {
                            "positionX": 7,
                            "tempo": 12
                        }
                    ],
                    "stepOffset": 0
                },
                {
                    "beatingStyle": "Click",
                    "rhythms": [
                        {
                            "positionX": -5
                        }
                    ],
                    "stepOffset": 4
                },
                {
                    "beatingStyle": "Click",
                    "rhythms": [
                        {
                            "positionX": -5
                        }
                    ],
                    "stepOffset": 4
                },
                {
                    "beatingStyle": "Click",
                    "rhythms": [
                        {
                            "positionX": -5
                        }
                    ],
                    "stepOffset": 4
                },
                {
                    "beatingStyle": "Click",
                    "rhythms": [
                        {
                            "positionX": -2
                        }
                    ],
                    "stepOffset": 4
                },
                {
                    "beatingStyle": "Click",
                    "rhythms": [
                        {
                            "positionX": 2
                        }
                    ],
                    "stepOffset": 0
                },
                {
                    "beatingStyle": "Click",
                    "rhythms": [
                        {
                            "positionX": 2
                        }
                    ],
                    "stepOffset": 4
                },
                {
                    "beatingStyle": "Click",
                    "rhythms": [
                        {
                            "positionX": -2
                        }
                    ],
                    "stepOffset": 2
                },
                {
                    "beatingStyle": "Drag",
                    "rhythms": [
                        {
                            "positionX": 2,
                            "tempo": 1
                        },
                        {
                            "positionX": 0,
                            "tempo": 1
                        },
                        {
                            "positionX": -2,
                            "tempo": 1
                        }
                    ],
                    "stepOffset": 4
                },
                {
                    "beatingStyle": "Hold",
                    "rhythms": [
                        {
                            "positionX": -8,
                            "tempo": 4
                        }
                    ],
                    "stepOffset": 6
                },
                {
                    "beatingStyle": "Hold",
                    "rhythms": [
                        {
                            "positionX": 8,
                            "tempo": 4
                        }
                    ],
                    "stepOffset": 6
                },
                {
                    "beatingStyle": "SpecialHold",
                    "rhythms": [
                        {
                            "positionX": -5,
                            "tempo": 20
                        }
                    ],
                    "stepOffset": 6
                },
                {
                    "beatingStyle": "Click",
                    "rhythms": [
                        {
                            "positionX": 3
                        }
                    ],
                    "stepOffset": 8
                },
                {
                    "beatingStyle": "Click",
                    "rhythms": [
                        {
                            "positionX": 3
                        }
                    ],
                    "stepOffset": 8
                },
                {
                    "beatingStyle": "Click",
                    "rhythms": [
                        {
                            "positionX": 0
                        }
                    ],
                    "stepOffset": 8
                },
                {
                    "beatingStyle": "Click",
                    "rhythms": [
                        {
                            "positionX": 6
                        }
                    ],
                    "stepOffset": 0
                },
                {
                    "beatingStyle": "Click",
                    "rhythms": [
                        {
                            "positionX": 0
                        }
                    ],
                    "stepOffset": 8
                },
                {
                    "beatingStyle": "Click",
                    "rhythms": [
                        {
                            "positionX": 6
                        }
                    ],
                    "stepOffset": 0
                },
                {
                    "beatingStyle": "Click",
                    "rhythms": [
                        {
                            "positionX": -3
                        }
                    ],
                    "stepOffset": 8
                },
                {
                    "beatingStyle": "Click",
                    "rhythms": [
                        {
                            "positionX": 3
                        }
                    ],
                    "stepOffset": 0
                },
                {
                    "beatingStyle": "Click",
                    "rhythms": [
                        {
                            "positionX": -3
                        }
                    ],
                    "stepOffset": 8
                },
                {
                    "beatingStyle": "Click",
                    "rhythms": [
                        {
                            "positionX": 3
                        }
                    ],
                    "stepOffset": 0
                },
                {
                    "beatingStyle": "Hold",
                    "rhythms": [
                        {
                            "positionX": 8,
                            "tempo": 4
                        }
                    ],
                    "stepOffset": 4
                },
                {
                    "beatingStyle": "Hold",
                    "rhythms": [
                        {
                            "positionX": -8,
                            "tempo": 4
                        }
                    ],
                    "stepOffset": 6
                },
                {
                    "beatingStyle": "SpecialHold",
                    "rhythms": [
                        {
                            "positionX": 5,
                            "tempo": 12
                        }
                    ],
                    "stepOffset": 6
                },
                {
                    "beatingStyle": "Click",
                    "rhythms": [
                        {
                            "positionX": -3
                        }
                    ],
                    "stepOffset": 8
                },
                {
                    "beatingStyle": "Click",
                    "rhythms": [
                        {
                            "positionX": -3
                        }
                    ],
                    "stepOffset": 8
                },
                {
                    "beatingStyle": "Click",
                    "rhythms": [
                        {
                            "positionX": 0
                        }
                    ],
                    "stepOffset": 4
                },
                {
                    "beatingStyle": "Click",
                    "rhythms": [
                        {
                            "positionX": -6
                        }
                    ],
                    "stepOffset": 4
                },
                {
                    "beatingStyle": "Click",
                    "rhythms": [
                        {
                            "positionX": 0
                        }
                    ],
                    "stepOffset": 4
                },
                {
                    "beatingStyle": "Click",
                    "rhythms": [
                        {
                            "positionX": 0
                        }
                    ],
                    "stepOffset": 4
                },
                {
                    "beatingStyle": "Click",
                    "rhythms": [
                        {
                            "positionX": -6
                        }
                    ],
                    "stepOffset": 0
                },
                {
                    "beatingStyle": "Click",
                    "rhythms": [
                        {
                            "positionX": 3
                        }
                    ],
                    "stepOffset": 4
                },
                {
                    "beatingStyle": "Click",
                    "rhythms": [
                        {
                            "positionX": -3
                        }
                    ],
                    "stepOffset": 4
                },
                {
                    "beatingStyle": "Click",
                    "rhythms": [
                        {
                            "positionX": 3
                        }
                    ],
                    "stepOffset": 4
                },
                {
                    "beatingStyle": "Click",
                    "rhythms": [
                        {
                            "positionX": 3
                        }
                    ],
                    "stepOffset": 4
                },
                {
                    "beatingStyle": "Click",
                    "rhythms": [
                        {
                            "positionX": -3
                        }
                    ],
                    "stepOffset": 0
                },
                {
                    "beatingStyle": "Click",
                    "rhythms": [
                        {
                            "positionX": -6
                        }
                    ],
                    "stepOffset": 4
                },
                {
                    "beatingStyle": "Click",
                    "rhythms": [
                        {
                            "positionX": 8
                        }
                    ],
                    "stepOffset": 0
                },
                {
                    "beatingStyle": "Click",
                    "rhythms": [
                        {
                            "positionX": -8
                        }
                    ],
                    "stepOffset": 4
                },
                {
                    "beatingStyle": "Click",
                    "rhythms": [
                        {
                            "positionX": 6
                        }
                    ],
                    "stepOffset": 0
                },
                {
                    "beatingStyle": "Click",
                    "rhythms": [
                        {
                            "positionX": -6
                        }
                    ],
                    "stepOffset": 4
                },
                {
                    "beatingStyle": "Click",
                    "rhythms": [
                        {
                            "positionX": 8
                        }
                    ],
                    "stepOffset": 0
                },
                {
                    "beatingStyle": "Click",
                    "rhythms": [
                        {
                            "positionX": -8
                        }
                    ],
                    "stepOffset": 4
                },
                {
                    "beatingStyle": "Click",
                    "rhythms": [
                        {
                            "positionX": 6
                        }
                    ],
                    "stepOffset": 0
                },
                {
                    "beatingStyle": "Click",
                    "rhythms": [
                        {
                            "positionX": 2
                        }
                    ],
                    "stepOffset": 4
                },
                {
                    "beatingStyle": "Click",
                    "rhythms": [
                        {
                            "positionX": -2
                        }
                    ],
                    "stepOffset": 2
                },
                {
                    "beatingStyle": "Click",
                    "rhythms": [
                        {
                            "positionX": 2
                        }
                    ],
                    "stepOffset": 2
                },
                {
                    "beatingStyle": "Click",
                    "rhythms": [
                        {
                            "positionX": -2
                        }
                    ],
                    "stepOffset": 2
                },
                {
                    "beatingStyle": "Click",
                    "rhythms": [
                        {
                            "positionX": 2
                        }
                    ],
                    "stepOffset": 2
                },
                {
                    "beatingStyle": "Click",
                    "rhythms": [
                        {
                            "positionX": -2
                        }
                    ],
                    "stepOffset": 2
                },
                {
                    "beatingStyle": "Click",
                    "rhythms": [
                        {
                            "positionX": 2
                        }
                    ],
                    "stepOffset": 2
                },
                {
                    "beatingStyle": "Click",
                    "rhythms": [
                        {
                            "positionX": -2
                        }
                    ],
                    "stepOffset": 2
                },
                {
                    "beatingStyle": "Hold",
                    "rhythms": [
                        {
                            "positionX": -6,
                            "tempo": 8
                        }
                    ],
                    "stepOffset": 2
                },
                {
                    "beatingStyle": "Hold",
                    "rhythms": [
                        {
                            "positionX": 6,
                            "tempo": 8
                        }
                    ],
                    "stepOffset": 0
                },
                {
                    "beatingStyle": "Click",
                    "rhythms": [
                        {
                            "positionX": -6
                        }
                    ],
                    "stepOffset": 12
                },
                {
                    "beatingStyle": "Click",
                    "rhythms": [
                        {
                            "positionX": 6
                        }
                    ],
                    "stepOffset": 0
                },
                {
                    "beatingStyle": "Click",
                    "rhythms": [
                        {
                            "positionX": -6
                        }
                    ],
                    "stepOffset": 2
                },
                {
                    "beatingStyle": "Click",
                    "rhythms": [
                        {
                            "positionX": 6
                        }
                    ],
                    "stepOffset": 0
                },
                {
                    "beatingStyle": "Click",
                    "rhythms": [
                        {
                            "positionX": -2
                        }
                    ],
                    "stepOffset": 14
                },
                {
                    "beatingStyle": "Click",
                    "rhythms": [
                        {
                            "positionX": 6
                        }
                    ],
                    "stepOffset": 4
                },
                {
                    "beatingStyle": "Click",
                    "rhythms": [
                        {
                            "positionX": -6
                        }
                    ],
                    "stepOffset": 8
                },
                {
                    "beatingStyle": "Click",
                    "rhythms": [
                        {
                            "positionX": -8
                        }
                    ],
                    "stepOffset": 6
                },
                {
                    "beatingStyle": "Click",
                    "rhythms": [
                        {
                            "positionX": 8
                        }
                    ],
                    "stepOffset": 0
                },
                {
                    "beatingStyle": "Click",
                    "rhythms": [
                        {
                            "positionX": 2
                        }
                    ],
                    "stepOffset": 10
                },
                {
                    "beatingStyle": "Click",
                    "rhythms": [
                        {
                            "positionX": -2
                        }
                    ],
                    "stepOffset": 4
                },
                {
                    "beatingStyle": "Hold",
                    "rhythms": [
                        {
                            "positionX": 8,
                            "tempo": 4
                        }
                    ],
                    "stepOffset": 4
                },
                {
                    "beatingStyle": "Hold",
                    "rhythms": [
                        {
                            "positionX": -8,
                            "tempo": 4
                        }
                    ],
                    "stepOffset": 6
                },
                {
                    "beatingStyle": "SpecialHold",
                    "rhythms": [
                        {
                            "positionX": 5,
                            "tempo": 8
                        }
                    ],
                    "stepOffset": 6
                },
                {
                    "beatingStyle": "Click",
                    "rhythms": [
                        {
                            "positionX": -2
                        }
                    ],
                    "stepOffset": 8
                },
                {
                    "beatingStyle": "Click",
                    "rhythms": [
                        {
                            "positionX": -2
                        }
                    ],
                    "stepOffset": 4
                },
                {
                    "beatingStyle": "Click",
                    "rhythms": [
                        {
                            "positionX": 2
                        }
                    ],
                    "stepOffset": 4
                },
                {
                    "beatingStyle": "Hold",
                    "rhythms": [
                        {
                            "positionX": -8,
                            "tempo": 4
                        }
                    ],
                    "stepOffset": 4
                },
                {
                    "beatingStyle": "Hold",
                    "rhythms": [
                        {
                            "positionX": 8,
                            "tempo": 4
                        }
                    ],
                    "stepOffset": 6
                },
                {
                    "beatingStyle": "SpecialHold",
                    "rhythms": [
                        {
                            "positionX": -5,
                            "tempo": 8
                        }
                    ],
                    "stepOffset": 6
                },
                {
                    "beatingStyle": "Click",
                    "rhythms": [
                        {
                            "positionX": 2
                        }
                    ],
                    "stepOffset": 8
                },
                {
                    "beatingStyle": "Click",
                    "rhythms": [
                        {
                            "positionX": 2
                        }
                    ],
                    "stepOffset": 4
                },
                {
                    "beatingStyle": "Click",
                    "rhythms": [
                        {
                            "positionX": -2
                        }
                    ],
                    "stepOffset": 2
                },
                {
                    "beatingStyle": "Click",
                    "rhythms": [
                        {
                            "positionX": 2
                        }
                    ],
                    "stepOffset": 2
                },
                {
                    "beatingStyle": "Drag",
                    "rhythms": [
                        {
                            "positionX": -7,
                            "tempo": 4
                        },
                        {
                            "positionX": -5,
                            "tempo": 2
                        },
                        {
                            "positionX": -7,
                            "tempo": 6
                        },
                        {
                            "positionX": -5,
                            "tempo": 2
                        },
                        {
                            "positionX": -7,
                            "tempo": 6
                        }
                    ],
                    "stepOffset": 4
                },
                {
                    "beatingStyle": "Click",
                    "rhythms": [
                        {
                            "positionX": 6
                        }
                    ],
                    "stepOffset": 4
                },
                {
                    "beatingStyle": "Click",
                    "rhythms": [
                        {
                            "positionX": 6
                        }
                    ],
                    "stepOffset": 8
                },
                {
                    "beatingStyle": "Click",
                    "rhythms": [
                        {
                            "positionX": -2
                        }
                    ],
                    "stepOffset": 8
                },
                {
                    "beatingStyle": "Click",
                    "rhythms": [
                        {
                            "positionX": -2
                        }
                    ],
                    "stepOffset": 4
                },
                {
                    "beatingStyle": "Click",
                    "rhythms": [
                        {
                            "positionX": 2
                        }
                    ],
                    "stepOffset": 2
                },
                {
                    "beatingStyle": "Click",
                    "rhythms": [
                        {
                            "positionX": -2
                        }
                    ],
                    "stepOffset": 2
                },
                {
                    "beatingStyle": "Drag",
                    "rhythms": [
                        {
                            "positionX": 7,
                            "tempo": 4
                        },
                        {
                            "positionX": 5,
                            "tempo": 2
                        },
                        {
                            "positionX": 7,
                            "tempo": 6
                        },
                        {
                            "positionX": 5,
                            "tempo": 2
                        },
                        {
                            "positionX": 7,
                            "tempo": 6
                        }
                    ],
                    "stepOffset": 4
                },
                {
                    "beatingStyle": "Click",
                    "rhythms": [
                        {
                            "positionX": -6
                        }
                    ],
                    "stepOffset": 4
                },
                {
                    "beatingStyle": "Click",
                    "rhythms": [
                        {
                            "positionX": -6
                        }
                    ],
                    "stepOffset": 8
                },
                {
                    "beatingStyle": "Click",
                    "rhythms": [
                        {
                            "positionX": 2
                        }
                    ],
                    "stepOffset": 8
                },
                {
                    "beatingStyle": "Click",
                    "rhythms": [
                        {
                            "positionX": 2
                        }
                    ],
                    "stepOffset": 4
                },
                {
                    "beatingStyle": "Click",
                    "rhythms": [
                        {
                            "positionX": -2
                        }
                    ],
                    "stepOffset": 4
                },
                {
                    "beatingStyle": "Drag",
                    "rhythms": [
                        {
                            "positionX": 4,
                            "tempo": 2
                        },
                        {
                            "positionX": 5,
                            "tempo": 2
                        },
                        {
                            "positionX": 6,
                            "tempo": 2
                        },
                        {
                            "positionX": 7,
                            "tempo": 2
                        }
                    ],
                    "stepOffset": 4
                },
                {
                    "beatingStyle": "Drag",
                    "rhythms": [
                        {
                            "positionX": -3,
                            "tempo": 2
                        },
                        {
                            "positionX": -4,
                            "tempo": 2
                        },
                        {
                            "positionX": -5,
                            "tempo": 2
                        },
                        {
                            "positionX": -6,
                            "tempo": 2
                        }
                    ],
                    "stepOffset": 8
                },
                {
                    "beatingStyle": "Drag",
                    "rhythms": [
                        {
                            "positionX": 6,
                            "tempo": 2
                        },
                        {
                            "positionX": 5,
                            "tempo": 2
                        },
                        {
                            "positionX": 4,
                            "tempo": 2
                        },
                        {
                            "positionX": 3,
                            "tempo": 2
                        }
                    ],
                    "stepOffset": 8
                },
                {
                    "beatingStyle": "Drag",
                    "rhythms": [
                        {
                            "positionX": -7,
                            "tempo": 2
                        },
                        {
                            "positionX": -6,
                            "tempo": 2
                        },
                        {
                            "positionX": -5,
                            "tempo": 2
                        },
                        {
                            "positionX": -4,
                            "tempo": 2
                        }
                    ],
                    "stepOffset": 8
                },
                {
                    "beatingStyle": "Drag",
                    "rhythms": [
                        {
                            "positionX": 4,
                            "tempo": 2
                        },
                        {
                            "positionX": 3,
                            "tempo": 2
                        },
                        {
                            "positionX": 2,
                            "tempo": 2
                        },
                        {
                            "positionX": 1,
                            "tempo": 2
                        }
                    ],
                    "stepOffset": 8
                },
                {
                    "beatingStyle": "Drag",
                    "rhythms": [
                        {
                            "positionX": -5,
                            "tempo": 2
                        },
                        {
                            "positionX": -4,
                            "tempo": 2
                        },
                        {
                            "positionX": -3,
                            "tempo": 2
                        },
                        {
                            "positionX": -2,
                            "tempo": 2
                        }
                    ],
                    "stepOffset": 8
                },
                {
                    "beatingStyle": "Drag",
                    "rhythms": [
                        {
                            "positionX": 2,
                            "tempo": 2
                        },
                        {
                            "positionX": 3,
                            "tempo": 2
                        },
                        {
                            "positionX": 4,
                            "tempo": 2
                        },
                        {
                            "positionX": 5,
                            "tempo": 2
                        }
                    ],
                    "stepOffset": 8
                },
                {
                    "beatingStyle": "Drag",
                    "rhythms": [
                        {
                            "positionX": -1,
                            "tempo": 2
                        },
                        {
                            "positionX": -2,
                            "tempo": 2
                        },
                        {
                            "positionX": -3,
                            "tempo": 2
                        },
                        {
                            "positionX": -4,
                            "tempo": 2
                        }
                    ],
                    "stepOffset": 8
                },
                {
                    "beatingStyle": "Drag",
                    "rhythms": [
                        {
                            "positionX": 7,
                            "tempo": 4
                        },
                        {
                            "positionX": 5,
                            "tempo": 2
                        },
                        {
                            "positionX": 7,
                            "tempo": 6
                        },
                        {
                            "positionX": 5,
                            "tempo": 2
                        },
                        {
                            "positionX": 7,
                            "tempo": 6
                        }
                    ],
                    "stepOffset": 8
                },
                {
                    "beatingStyle": "Click",
                    "rhythms": [
                        {
                            "positionX": -6
                        }
                    ],
                    "stepOffset": 4
                },
                {
                    "beatingStyle": "Click",
                    "rhythms": [
                        {
                            "positionX": -6
                        }
                    ],
                    "stepOffset": 8
                },
                {
                    "beatingStyle": "Click",
                    "rhythms": [
                        {
                            "positionX": 2
                        }
                    ],
                    "stepOffset": 8
                },
                {
                    "beatingStyle": "Click",
                    "rhythms": [
                        {
                            "positionX": -2
                        }
                    ],
                    "stepOffset": 8
                },
                {
                    "beatingStyle": "Click",
                    "rhythms": [
                        {
                            "positionX": -7
                        }
                    ],
                    "stepOffset": 4
                },
                {
                    "beatingStyle": "Click",
                    "rhythms": [
                        {
                            "positionX": 5
                        }
                    ],
                    "stepOffset": 0
                },
                {
                    "beatingStyle": "Click",
                    "rhythms": [
                        {
                            "positionX": -6
                        }
                    ],
                    "stepOffset": 6
                },
                {
                    "beatingStyle": "Click",
                    "rhythms": [
                        {
                            "positionX": 6
                        }
                    ],
                    "stepOffset": 0
                },
                {
                    "beatingStyle": "Click",
                    "rhythms": [
                        {
                            "positionX": -5
                        }
                    ],
                    "stepOffset": 6
                },
                {
                    "beatingStyle": "Click",
                    "rhythms": [
                        {
                            "positionX": 7
                        }
                    ],
                    "stepOffset": 0
                },
                {
                    "beatingStyle": "Click",
                    "rhythms": [
                        {
                            "positionX": -3
                        }
                    ],
                    "stepOffset": 10
                },
                {
                    "beatingStyle": "Click",
                    "rhythms": [
                        {
                            "positionX": 3
                        }
                    ],
                    "stepOffset": 2
                },
                {
                    "beatingStyle": "Click",
                    "rhythms": [
                        {
                            "positionX": -3
                        }
                    ],
                    "stepOffset": 4
                },
                {
                    "beatingStyle": "SpecialHold",
                    "rhythms": [
                        {
                            "positionX": 0,
                            "tempo": 34
                        }
                    ],
                    "stepOffset": 2
                },
                {
                    "beatingStyle": "Click",
                    "rhythms": [
                        {
                            "positionX": -3
                        }
                    ],
                    "stepOffset": 66
                },
                {
                    "beatingStyle": "Click",
                    "rhythms": [
                        {
                            "positionX": 3
                        }
                    ],
                    "stepOffset": 0
                },
                {
                    "beatingStyle": "Click",
                    "rhythms": [
                        {
                            "positionX": 1
                        }
                    ],
                    "stepOffset": 4
                },
                {
                    "beatingStyle": "Click",
                    "rhythms": [
                        {
                            "positionX": -1
                        }
                    ],
                    "stepOffset": 8
                },
                {
                    "beatingStyle": "Click",
                    "rhythms": [
                        {
                            "positionX": -5
                        }
                    ],
                    "stepOffset": 4
                },
                {
                    "beatingStyle": "Click",
                    "rhythms": [
                        {
                            "positionX": 5
                        }
                    ],
                    "stepOffset": 0
                },
                {
                    "beatingStyle": "Click",
                    "rhythms": [
                        {
                            "positionX": 7
                        }
                    ],
                    "stepOffset": 4
                },
                {
                    "beatingStyle": "Click",
                    "rhythms": [
                        {
                            "positionX": -7
                        }
                    ],
                    "stepOffset": 8
                },
                {
                    "beatingStyle": "Click",
                    "rhythms": [
                        {
                            "positionX": 3
                        }
                    ],
                    "stepOffset": 4
                },
                {
                    "beatingStyle": "Click",
                    "rhythms": [
                        {
                            "positionX": -3
                        }
                    ],
                    "stepOffset": 2
                },
                {
                    "beatingStyle": "Click",
                    "rhythms": [
                        {
                            "positionX": 3
                        }
                    ],
                    "stepOffset": 2
                },
                {
                    "beatingStyle": "Click",
                    "rhythms": [
                        {
                            "positionX": -3
                        }
                    ],
                    "stepOffset": 2
                },
                {
                    "beatingStyle": "Click",
                    "rhythms": [
                        {
                            "positionX": 3
                        }
                    ],
                    "stepOffset": 2
                },
                {
                    "beatingStyle": "Click",
                    "rhythms": [
                        {
                            "positionX": -3
                        }
                    ],
                    "stepOffset": 2
                },
                {
                    "beatingStyle": "Click",
                    "rhythms": [
                        {
                            "positionX": 3
                        }
                    ],
                    "stepOffset": 2
                },
                {
                    "beatingStyle": "Click",
                    "rhythms": [
                        {
                            "positionX": -3
                        }
                    ],
                    "stepOffset": 2
                },
                {
                    "beatingStyle": "Hold",
                    "rhythms": [
                        {
                            "positionX": 0,
                            "tempo": 8
                        }
                    ],
                    "stepOffset": 2
                },
                {
                    "beatingStyle": "Hold",
                    "rhythms": [
                        {
                            "positionX": -8,
                            "tempo": 4
                        }
                    ],
                    "stepOffset": 16
                },
                {
                    "beatingStyle": "Hold",
                    "rhythms": [
                        {
                            "positionX": 8,
                            "tempo": 4
                        }
                    ],
                    "stepOffset": 6
                },
                {
                    "beatingStyle": "SpecialHold",
                    "rhythms": [
                        {
                            "positionX": -5,
                            "tempo": 8
                        }
                    ],
                    "stepOffset": 6
                },
                {
                    "beatingStyle": "Click",
                    "rhythms": [
                        {
                            "positionX": 2
                        }
                    ],
                    "stepOffset": 12
                },
                {
                    "beatingStyle": "Click",
                    "rhythms": [
                        {
                            "positionX": -2
                        }
                    ],
                    "stepOffset": 4
                },
                {
                    "beatingStyle": "Hold",
                    "rhythms": [
                        {
                            "positionX": 8,
                            "tempo": 4
                        }
                    ],
                    "stepOffset": 4
                },
                {
                    "beatingStyle": "Hold",
                    "rhythms": [
                        {
                            "positionX": -8,
                            "tempo": 4
                        }
                    ],
                    "stepOffset": 6
                },
                {
                    "beatingStyle": "SpecialHold",
                    "rhythms": [
                        {
                            "positionX": 5,
                            "tempo": 8
                        }
                    ],
                    "stepOffset": 6
                },
                {
                    "beatingStyle": "Click",
                    "rhythms": [
                        {
                            "positionX": -2
                        }
                    ],
                    "stepOffset": 12
                },
                {
                    "beatingStyle": "Click",
                    "rhythms": [
                        {
                            "positionX": 2
                        }
                    ],
                    "stepOffset": 2
                },
                {
                    "beatingStyle": "Click",
                    "rhythms": [
                        {
                            "positionX": -2
                        }
                    ],
                    "stepOffset": 2
                },
                {
                    "beatingStyle": "Drag",
                    "rhythms": [
                        {
                            "positionX": 7,
                            "tempo": 4
                        },
                        {
                            "positionX": 5,
                            "tempo": 2
                        },
                        {
                            "positionX": 7,
                            "tempo": 6
                        },
                        {
                            "positionX": 5,
                            "tempo": 2
                        },
                        {
                            "positionX": 7,
                            "tempo": 6
                        }
                    ],
                    "stepOffset": 4
                },
                {
                    "beatingStyle": "Click",
                    "rhythms": [
                        {
                            "positionX": 2
                        }
                    ],
                    "stepOffset": 24
                },
                {
                    "beatingStyle": "Click",
                    "rhythms": [
                        {
                            "positionX": -2
                        }
                    ],
                    "stepOffset": 2
                },
                {
                    "beatingStyle": "Click",
                    "rhythms": [
                        {
                            "positionX": 2
                        }
                    ],
                    "stepOffset": 2
                },
                {
                    "beatingStyle": "Drag",
                    "rhythms": [
                        {
                            "positionX": -7,
                            "tempo": 4
                        },
                        {
                            "positionX": -5,
                            "tempo": 2
                        },
                        {
                            "positionX": -7,
                            "tempo": 6
                        },
                        {
                            "positionX": -5,
                            "tempo": 2
                        },
                        {
                            "positionX": -7,
                            "tempo": 6
                        }
                    ],
                    "stepOffset": 4
                },
                {
                    "beatingStyle": "Hold",
                    "rhythms": [
                        {
                            "positionX": 7,
                            "tempo": 14
                        }
                    ],
                    "stepOffset": 0
                },
                {
                    "beatingStyle": "Click",
                    "rhythms": [
                        {
                            "positionX": -2
                        }
                    ],
                    "stepOffset": 24
                },
                {
                    "beatingStyle": "Click",
                    "rhythms": [
                        {
                            "positionX": 2
                        }
                    ],
                    "stepOffset": 4
                },
                {
                    "beatingStyle": "Drag",
                    "rhythms": [
                        {
                            "positionX": -4,
                            "tempo": 2
                        },
                        {
                            "positionX": -5,
                            "tempo": 2
                        },
                        {
                            "positionX": -6,
                            "tempo": 2
                        },
                        {
                            "positionX": -7,
                            "tempo": 2
                        }
                    ],
                    "stepOffset": 4
                },
                {
                    "beatingStyle": "Drag",
                    "rhythms": [
                        {
                            "positionX": 3,
                            "tempo": 2
                        },
                        {
                            "positionX": 4,
                            "tempo": 2
                        },
                        {
                            "positionX": 5,
                            "tempo": 2
                        },
                        {
                            "positionX": 6,
                            "tempo": 2
                        }
                    ],
                    "stepOffset": 8
                },
                {
                    "beatingStyle": "Drag",
                    "rhythms": [
                        {
                            "positionX": -6,
                            "tempo": 2
                        },
                        {
                            "positionX": -5,
                            "tempo": 2
                        },
                        {
                            "positionX": -4,
                            "tempo": 2
                        },
                        {
                            "positionX": -3,
                            "tempo": 2
                        }
                    ],
                    "stepOffset": 8
                },
                {
                    "beatingStyle": "Drag",
                    "rhythms": [
                        {
                            "positionX": 7,
                            "tempo": 2
                        },
                        {
                            "positionX": 6,
                            "tempo": 2
                        },
                        {
                            "positionX": 5,
                            "tempo": 2
                        },
                        {
                            "positionX": 4,
                            "tempo": 2
                        }
                    ],
                    "stepOffset": 8
                },
                {
                    "beatingStyle": "Drag",
                    "rhythms": [
                        {
                            "positionX": -4,
                            "tempo": 2
                        },
                        {
                            "positionX": -3,
                            "tempo": 2
                        },
                        {
                            "positionX": -2,
                            "tempo": 2
                        },
                        {
                            "positionX": -1,
                            "tempo": 2
                        }
                    ],
                    "stepOffset": 8
                },
                {
                    "beatingStyle": "Drag",
                    "rhythms": [
                        {
                            "positionX": 5,
                            "tempo": 2
                        },
                        {
                            "positionX": 4,
                            "tempo": 2
                        },
                        {
                            "positionX": 3,
                            "tempo": 2
                        },
                        {
                            "positionX": 2,
                            "tempo": 2
                        }
                    ],
                    "stepOffset": 8
                },
                {
                    "beatingStyle": "Drag",
                    "rhythms": [
                        {
                            "positionX": -2,
                            "tempo": 2
                        },
                        {
                            "positionX": -3,
                            "tempo": 2
                        },
                        {
                            "positionX": -4,
                            "tempo": 2
                        },
                        {
                            "positionX": -5,
                            "tempo": 2
                        }
                    ],
                    "stepOffset": 8
                },
                {
                    "beatingStyle": "Drag",
                    "rhythms": [
                        {
                            "positionX": 1,
                            "tempo": 2
                        },
                        {
                            "positionX": 2,
                            "tempo": 2
                        },
                        {
                            "positionX": 3,
                            "tempo": 2
                        },
                        {
                            "positionX": 4,
                            "tempo": 2
                        }
                    ],
                    "stepOffset": 8
                },
                {
                    "beatingStyle": "Drag",
                    "rhythms": [
                        {
                            "positionX": -7,
                            "tempo": 4
                        },
                        {
                            "positionX": -5,
                            "tempo": 2
                        },
                        {
                            "positionX": -7,
                            "tempo": 6
                        },
                        {
                            "positionX": -5,
                            "tempo": 2
                        },
                        {
                            "positionX": -7,
                            "tempo": 6
                        }
                    ],
                    "stepOffset": 8
                },
                {
                    "beatingStyle": "Click",
                    "rhythms": [
                        {
                            "positionX": 6
                        }
                    ],
                    "stepOffset": 4
                },
                {
                    "beatingStyle": "Click",
                    "rhythms": [
                        {
                            "positionX": 6
                        }
                    ],
                    "stepOffset": 8
                },
                {
                    "beatingStyle": "Click",
                    "rhythms": [
                        {
                            "positionX": 2
                        }
                    ],
                    "stepOffset": 16
                },
                {
                    "beatingStyle": "Click",
                    "rhythms": [
                        {
                            "positionX": -5
                        }
                    ],
                    "stepOffset": 4
                },
                {
                    "beatingStyle": "Click",
                    "rhythms": [
                        {
                            "positionX": 7
                        }
                    ],
                    "stepOffset": 0
                },
                {
                    "beatingStyle": "Click",
                    "rhythms": [
                        {
                            "positionX": -6
                        }
                    ],
                    "stepOffset": 6
                },
                {
                    "beatingStyle": "Click",
                    "rhythms": [
                        {
                            "positionX": 6
                        }
                    ],
                    "stepOffset": 0
                },
                {
                    "beatingStyle": "Click",
                    "rhythms": [
                        {
                            "positionX": -7
                        }
                    ],
                    "stepOffset": 6
                },
                {
                    "beatingStyle": "Click",
                    "rhythms": [
                        {
                            "positionX": 5
                        }
                    ],
                    "stepOffset": 0
                },
                {
                    "beatingStyle": "Click",
                    "rhythms": [
                        {
                            "positionX": 3
                        }
                    ],
                    "stepOffset": 10
                },
                {
                    "beatingStyle": "Click",
                    "rhythms": [
                        {
                            "positionX": -3
                        }
                    ],
                    "stepOffset": 2
                },
                {
                    "beatingStyle": "Click",
                    "rhythms": [
                        {
                            "positionX": 3
                        }
                    ],
                    "stepOffset": 4
                },
                {
                    "beatingStyle": "SpecialHold",
                    "rhythms": [
                        {
                            "positionX": 0,
                            "tempo": 34
                        }
                    ],
                    "stepOffset": 2
                },
                {
                    "beatingStyle": "Drag",
                    "rhythms": [
                        {
                            "positionX": -1,
                            "tempo": 1
                        },
                        {
                            "positionX": -2,
                            "tempo": 1
                        },
                        {
                            "positionX": -3,
                            "tempo": 1
                        }
                    ],
                    "stepOffset": 54
                },
                {
                    "beatingStyle": "Click",
                    "rhythms": [
                        {
                            "positionX": 2
                        }
                    ],
                    "stepOffset": 4
                },
                {
                    "beatingStyle": "Click",
                    "rhythms": [
                        {
                            "positionX": -2
                        }
                    ],
                    "stepOffset": 3
                },
                {
                    "beatingStyle": "Click",
                    "rhythms": [
                        {
                            "positionX": 2
                        }
                    ],
                    "stepOffset": 3
                },
                {
                    "beatingStyle": "Hold",
                    "rhythms": [
                        {
                            "positionX": -5,
                            "tempo": 16
                        }
                    ],
                    "stepOffset": 2
                },
                {
                    "beatingStyle": "Click",
                    "rhythms": [
                        {
                            "positionX": 2
                        }
                    ],
                    "stepOffset": 26
                },
                {
                    "beatingStyle": "Click",
                    "rhythms": [
                        {
                            "positionX": -2
                        }
                    ],
                    "stepOffset": 2
                },
                {
                    "beatingStyle": "SpecialHold",
                    "rhythms": [
                        {
                            "positionX": 5,
                            "tempo": 34
                        }
                    ],
                    "stepOffset": 2
                }
            ]
        },
        {
            "difficultyLevel": 10,
            "difficulty": "Chaos",
            "beatUnit": 4,
            "notes": [
                {}
            ]
        }
    ]
}